{
  "current_page": 1,
  "data": [
    {
      "id": 652,
      "user_id": 1,
      "url": "https://www.facebook.com/",
      "title": "(1) Facebook Number 1",
      "description": "Erstelle ein Konto oder melde dich bei Facebook an. Verbinde dich mit Freunden, Familie und anderen Personen, die du kennst. Teile Fotos und Videos,...",
      "is_private": false,
      "created_at": "2020-12-30T16:34:10.000000Z",
      "updated_at": "2020-12-30T16:34:10.000000Z",
      "deleted_at": null,
      "icon": "brand.facebook",
      "status": 1,
      "check_disabled": false
    }
  ],
  "first_page_url": "http://example.com/api/v1/links?page=1",
  "from": 1,
  "last_page": 2,
  "last_page_url": "http://example.com/api/v1/links?page=3",
  "links": [
    {
      "url": null,
      "label": "&laquo; Previous",
      "active": false
    },
    {
      "url": "http://example.com/api/v1/links?page=1",
      "label": 1,
      "active": true
    },
    {
      "url": "http://example.com/api/v1/links?page=2",
      "label": 2,
      "active": false
    }
  ],
  "next_page_url": "http://example.com/api/v1/links?page=2",
  "path": "http://example.com/api/v1/links",
  "per_page": "120",
  "prev_page_url": null,
  "to": 120,
  "total": 327
}
